MIPS.vcd
$date
	Thu May 26 20:40:33 2022
$end
$version
	Icarus Verilog
$end
$timescale
	1ns
$end
$scope module tb_mips $end
$var reg 1 ! clk $end
$var reg 1 " rst $end
$scope module U_MIPS $end
$var wire 1 ! clk $end
$var wire 1 " rst $end
$var wire 32 # logic_out_out_value [31:0] $end
$var wire 3 $ logic_out_out_device [2:0] $end
$var wire 1 % logic_out_out_buzy $end
$var wire 36 & logic_in_out_valueB [35:0] $end
$var wire 36 ' logic_in_out_valueA [35:0] $end
$var wire 1 ( logic_in_out_ready $end
$var wire 1 ) logic_in_out_buzy $end
$var wire 2 * logic_in_out_algorithm [1:0] $end
$var wire 32 + jmp_out_value [31:0] $end
$var wire 3 , jmp_out_device [2:0] $end
$var wire 1 - jmp_out_buzy $end
$var wire 1 . jmp_buffer_buzy $end
$var wire 32 / ifu_pc [31:0] $end
$var wire 1 0 ifu_ir_buzy $end
$var wire 32 1 ifu_ir [31:0] $end
$var wire 32 2 dm_out_value [31:0] $end
$var wire 3 3 dm_out_device [2:0] $end
$var wire 1 4 dm_out_buzy $end
$var wire 1 5 dm_buffer_buzy $end
$var wire 36 6 ctrl_out_valueB [35:0] $end
$var wire 36 7 ctrl_out_valueA [35:0] $end
$var wire 36 8 ctrl_out_targetAddr [35:0] $end
$var wire 1 9 ctrl_out_dm_write $end
$var wire 1 : ctrl_out_dm_sign $end
$var wire 16 ; ctrl_out_dm_offset [15:0] $end
$var wire 3 < ctrl_out_device [2:0] $end
$var wire 1 = ctrl_out_buzy $end
$var wire 2 > ctrl_out_algorithm [1:0] $end
$var wire 32 ? cdb_value [31:0] $end
$var wire 3 @ cdb_device [2:0] $end
$var wire 1 A cdb_buzy $end
$var wire 32 B adder_out_out_value [31:0] $end
$var wire 3 C adder_out_out_device [2:0] $end
$var wire 1 D adder_out_out_buzy $end
$var wire 36 E adder_in_out_valueB [35:0] $end
$var wire 36 F adder_in_out_valueA [35:0] $end
$var wire 1 G adder_in_out_ready $end
$var wire 1 H adder_in_out_buzy $end
$var wire 2 I adder_in_out_algorithm [1:0] $end
$scope module U_AdderBufferIn $end
$var wire 1 ! clk $end
$var wire 3 J device_now [2:0] $end
$var wire 1 G out_ready $end
$var wire 1 " rst $end
$var wire 1 D nxt_buzy $end
$var wire 36 K in_valueB [35:0] $end
$var wire 36 L in_valueA [35:0] $end
$var wire 1 = in_hasInput $end
$var wire 3 M in_device [2:0] $end
$var wire 2 N in_algorithm [1:0] $end
$var wire 36 O fetchCDB_valueB [35:0] $end
$var wire 36 P fetchCDB_valueA [35:0] $end
$var wire 32 Q cdb_value [31:0] $end
$var wire 3 R cdb_device [2:0] $end
$var wire 1 A cdb_buzy $end
$var reg 2 S out_algorithm [1:0] $end
$var reg 1 H out_buzy $end
$var reg 36 T out_valueA [35:0] $end
$var reg 36 U out_valueB [35:0] $end
$scope module U_FetchCDB_valueA $end
$var wire 32 V cdb_value [31:0] $end
$var wire 3 W cdb_device [2:0] $end
$var wire 1 A cdb_buzy $end
$var wire 36 X buffer_value [35:0] $end
$var reg 36 Y buffer_newValue [35:0] $end
$upscope $end
$scope module U_FetchCDB_valueB $end
$var wire 32 Z cdb_value [31:0] $end
$var wire 3 [ cdb_device [2:0] $end
$var wire 1 A cdb_buzy $end
$var wire 36 \ buffer_value [35:0] $end
$var reg 36 ] buffer_newValue [35:0] $end
$upscope $end
$upscope $end
$scope module U_AdderBufferOut $end
$var wire 1 ! clk $end
$var wire 2 ^ in_algorithm [1:0] $end
$var wire 1 H in_buzy $end
$var wire 1 G in_ready $end
$var wire 36 _ in_valueA [35:0] $end
$var wire 36 ` in_valueB [35:0] $end
$var wire 1 " rst $end
$var wire 1 A cdb_buzy $end
$var wire 32 a adderAnswer [31:0] $end
$var reg 1 D out_buzy $end
$var reg 3 b out_device [2:0] $end
$var reg 32 c out_value [31:0] $end
$scope module U_AdderComb $end
$var wire 2 d in_algorithm [1:0] $end
$var wire 32 e in_valueA [31:0] $end
$var wire 32 f in_valueB [31:0] $end
$var reg 32 g out_answer [31:0] $end
$upscope $end
$upscope $end
$scope module U_Cdb $end
$var wire 1 D adder_buzy $end
$var wire 3 h adder_device [2:0] $end
$var wire 32 i adder_value [31:0] $end
$var wire 1 ! clk $end
$var wire 1 " rst $end
$var wire 32 j logic_value [31:0] $end
$var wire 3 k logic_device [2:0] $end
$var wire 1 % logic_buzy $end
$var wire 32 l jmp_value [31:0] $end
$var wire 3 m jmp_device [2:0] $end
$var wire 1 - jmp_buzy $end
$var wire 32 n dm_value [31:0] $end
$var wire 3 o dm_device [2:0] $end
$var wire 1 4 dm_buzy $end
$var reg 1 A out_buzy $end
$var reg 3 p out_device [2:0] $end
$var reg 32 q out_value [31:0] $end
$upscope $end
$scope module U_Ctrl $end
$var wire 1 A cdb_buzy $end
$var wire 3 r cdb_device [2:0] $end
$var wire 32 s cdb_value [31:0] $end
$var wire 1 ! clk $end
$var wire 1 t nxt_adder_buzy $end
$var wire 1 u nxt_buzy $end
$var wire 1 v nxt_dm_buzy $end
$var wire 1 w nxt_jmp_buzy $end
$var wire 1 x nxt_logic_buzy $end
$var wire 1 " rst $end
$var wire 5 y rt [4:0] $end
$var wire 5 z rs [4:0] $end
$var wire 36 { reg_readB [35:0] $end
$var wire 36 | reg_readA [35:0] $end
$var wire 5 } rd [4:0] $end
$var wire 32 ~ pc [31:0] $end
$var wire 1 0 ir_buzy $end
$var wire 32 !" ir [31:0] $end
$var wire 6 "" instr [5:0] $end
$var wire 26 #" imm26 [25:0] $end
$var wire 16 $" imm16 [15:0] $end
$var wire 32 %" getTargetAddr [31:0] $end
$var wire 6 &" func [5:0] $end
$var reg 2 '" out_algorithm [1:0] $end
$var reg 1 = out_buzy $end
$var reg 3 (" out_device [2:0] $end
$var reg 16 )" out_dm_offset [15:0] $end
$var reg 1 : out_dm_sign $end
$var reg 1 9 out_dm_write $end
$var reg 1 *" out_reg_write $end
$var reg 5 +" out_reg_writeId [4:0] $end
$var reg 36 ," out_reg_writeValue [35:0] $end
$var reg 36 -" out_targetAddr [35:0] $end
$var reg 36 ." out_valueA [35:0] $end
$var reg 36 /" out_valueB [35:0] $end
$scope module U_GPR $end
$var wire 1 A cdb_buzy $end
$var wire 3 0" cdb_device [2:0] $end
$var wire 32 1" cdb_value [31:0] $end
$var wire 1 ! clk $end
$var wire 1 = in_buzy $end
$var wire 1 2" in_launch $end
$var wire 5 3" in_readIdA [4:0] $end
$var wire 5 4" in_readIdB [4:0] $end
$var wire 1 *" in_write $end
$var wire 5 5" in_writeId [4:0] $end
$var wire 36 6" in_writeValue [35:0] $end
$var wire 1 " rst $end
$var wire 36 7" out_readB [35:0] $end
$var wire 36 8" out_readA [35:0] $end
$var integer 32 9" i [31:0] $end
$scope module U_FetchCDB_readA $end
$var wire 36 :" buffer_value [35:0] $end
$var wire 1 A cdb_buzy $end
$var wire 3 ;" cdb_device [2:0] $end
$var wire 32 <" cdb_value [31:0] $end
$var reg 36 =" buffer_newValue [35:0] $end
$upscope $end
$scope module U_FetchCDB_readB $end
$var wire 36 >" buffer_value [35:0] $end
$var wire 1 A cdb_buzy $end
$var wire 3 ?" cdb_device [2:0] $end
$var wire 32 @" cdb_value [31:0] $end
$var reg 36 A" buffer_newValue [35:0] $end
$upscope $end
$upscope $end
$upscope $end
$scope module U_DataMemory $end
$var wire 1 A cdb_buzy $end
$var wire 3 B" cdb_device [2:0] $end
$var wire 32 C" cdb_value [31:0] $end
$var wire 1 ! clk $end
$var wire 1 D dvc_adder_buzy $end
$var wire 16 D" in_DM_offset [15:0] $end
$var wire 1 : in_DM_sign $end
$var wire 1 9 in_DM_write $end
$var wire 2 E" in_algorithm [1:0] $end
$var wire 3 F" in_device [2:0] $end
$var wire 1 = in_hasInput $end
$var wire 36 G" in_valueA [35:0] $end
$var wire 36 H" in_valueB [35:0] $end
$var wire 1 " rst $end
$var wire 36 I" fetchCDB_valueB [35:0] $end
$var wire 36 J" fetchCDB_valueA [35:0] $end
$var wire 1 % dvc_logic_buzy $end
$var wire 1 K" buffer_ready $end
$var wire 32 L" buffer_addr [31:0] $end
$var reg 16 M" buffer_DM_offset [15:0] $end
$var reg 1 N" buffer_DM_sign $end
$var reg 1 O" buffer_DM_write $end
$var reg 2 P" buffer_algorithm [1:0] $end
$var reg 1 5 buffer_buzy $end
$var reg 36 Q" buffer_valueA [35:0] $end
$var reg 36 R" buffer_valueB [35:0] $end
$var reg 1 4 out_buzy $end
$var reg 3 S" out_device [2:0] $end
$var reg 32 T" out_value [31:0] $end
$var integer 32 U" i [31:0] $end
$scope module U_FetchCDB_valueA $end
$var wire 36 V" buffer_value [35:0] $end
$var wire 1 A cdb_buzy $end
$var wire 3 W" cdb_device [2:0] $end
$var wire 32 X" cdb_value [31:0] $end
$var reg 36 Y" buffer_newValue [35:0] $end
$upscope $end
$scope module U_FetchCDB_valueB $end
$var wire 36 Z" buffer_value [35:0] $end
$var wire 1 A cdb_buzy $end
$var wire 3 [" cdb_device [2:0] $end
$var wire 32 \" cdb_value [31:0] $end
$var reg 36 ]" buffer_newValue [35:0] $end
$upscope $end
$upscope $end
$scope module U_IFU $end
$var wire 1 A cdb_buzy $end
$var wire 3 ^" cdb_device [2:0] $end
$var wire 32 _" cdb_value [31:0] $end
$var wire 1 ! clk $end
$var wire 1 `" ctrl_readIns $end
$var wire 1 = nxt_buzy $end
$var wire 1 " rst $end
$var wire 10 a" ins_addr [9:0] $end
$var reg 32 b" ir [31:0] $end
$var reg 1 0 ir_buzy $end
$var reg 32 c" pc [31:0] $end
$upscope $end
$scope module U_Jmp $end
$var wire 1 A cdb_buzy $end
$var wire 3 d" cdb_device [2:0] $end
$var wire 32 e" cdb_value [31:0] $end
$var wire 1 ! clk $end
$var wire 1 D dvc_adder_buzy $end
$var wire 1 4 dvc_memory_buzy $end
$var wire 2 f" in_algorithm [1:0] $end
$var wire 3 g" in_device [2:0] $end
$var wire 1 = in_hasInput $end
$var wire 36 h" in_targetAddr [35:0] $end
$var wire 36 i" in_valueA [35:0] $end
$var wire 36 j" in_valueB [35:0] $end
$var wire 1 " rst $end
$var wire 36 k" fetchCDB_valueB [35:0] $end
$var wire 36 l" fetchCDB_valueA [35:0] $end
$var wire 36 m" fetchCDB_targetAddr [35:0] $end
$var wire 1 % dvc_logic_buzy $end
$var reg 2 n" buffer_algorithm [1:0] $end
$var reg 1 . buffer_buzy $end
$var reg 1 o" buffer_ready $end
$var reg 36 p" buffer_targetAddr [35:0] $end
$var reg 36 q" buffer_valueA [35:0] $end
$var reg 36 r" buffer_valueB [35:0] $end
$var reg 1 - out_buzy $end
$var reg 3 s" out_device [2:0] $end
$var reg 32 t" out_value [31:0] $end
$scope module U_FetchCDB_targetAddr $end
$var wire 36 u" buffer_value [35:0] $end
$var wire 1 A cdb_buzy $end
$var wire 3 v" cdb_device [2:0] $end
$var wire 32 w" cdb_value [31:0] $end
$var reg 36 x" buffer_newValue [35:0] $end
$upscope $end
$scope module U_FetchCDB_valueA $end
$var wire 36 y" buffer_value [35:0] $end
$var wire 1 A cdb_buzy $end
$var wire 3 z" cdb_device [2:0] $end
$var wire 32 {" cdb_value [31:0] $end
$var reg 36 |" buffer_newValue [35:0] $end
$upscope $end
$scope module U_FetchCDB_valueB $end
$var wire 36 }" buffer_value [35:0] $end
$var wire 1 A cdb_buzy $end
$var wire 3 ~" cdb_device [2:0] $end
$var wire 32 !# cdb_value [31:0] $end
$var reg 36 "# buffer_newValue [35:0] $end
$upscope $end
$upscope $end
$scope module U_LogicBufferIn $end
$var wire 1 A cdb_buzy $end
$var wire 3 ## cdb_device [2:0] $end
$var wire 32 $# cdb_value [31:0] $end
$var wire 1 ! clk $end
$var wire 3 %# device_now [2:0] $end
$var wire 2 &# in_algorithm [1:0] $end
$var wire 3 '# in_device [2:0] $end
$var wire 1 = in_hasInput $end
$var wire 36 (# in_valueA [35:0] $end
$var wire 36 )# in_valueB [35:0] $end
$var wire 1 ( out_ready $end
$var wire 1 " rst $end
$var wire 1 % nxt_buzy $end
$var wire 36 *# fetchCDB_valueB [35:0] $end
$var wire 36 +# fetchCDB_valueA [35:0] $end
$var reg 2 ,# out_algorithm [1:0] $end
$var reg 1 ) out_buzy $end
$var reg 36 -# out_valueA [35:0] $end
$var reg 36 .# out_valueB [35:0] $end
$scope module U_FetchCDB_valueA $end
$var wire 36 /# buffer_value [35:0] $end
$var wire 1 A cdb_buzy $end
$var wire 3 0# cdb_device [2:0] $end
$var wire 32 1# cdb_value [31:0] $end
$var reg 36 2# buffer_newValue [35:0] $end
$upscope $end
$scope module U_FetchCDB_valueB $end
$var wire 36 3# buffer_value [35:0] $end
$var wire 1 A cdb_buzy $end
$var wire 3 4# cdb_device [2:0] $end
$var wire 32 5# cdb_value [31:0] $end
$var reg 36 6# buffer_newValue [35:0] $end
$upscope $end
$upscope $end
$scope module U_LogicBufferOut $end
$var wire 1 A cdb_buzy $end
$var wire 1 ! clk $end
$var wire 1 D dvc_adder_buzy $end
$var wire 2 7# in_algorithm [1:0] $end
$var wire 1 ) in_buzy $end
$var wire 1 ( in_ready $end
$var wire 36 8# in_valueA [35:0] $end
$var wire 36 9# in_valueB [35:0] $end
$var wire 1 " rst $end
$var wire 32 :# logicAnswer [31:0] $end
$var reg 1 % out_buzy $end
$var reg 3 ;# out_device [2:0] $end
$var reg 32 <# out_value [31:0] $end
$scope module U_LogicComb $end
$var wire 2 =# in_algorithm [1:0] $end
$var wire 32 ># in_valueA [31:0] $end
$var wire 32 ?# in_valueB [31:0] $end
$var reg 32 @# out_answer [31:0] $end
$upscope $end
$upscope $end
$upscope $end
$upscope $end
$enddefinitions $end
#0
$dumpvars
bx @#
bx ?#
bx >#
bx =#
bx <#
bx ;#
bx :#
bx 9#
bx 8#
bx 7#
bx 6#
bx 5#
bx 4#
bx 3#
bx 2#
bx 1#
bx 0#
bx /#
bx .#
bx -#
bx ,#
bx +#
bx *#
bx )#
bx (#
bx '#
bx &#
b10 %#
bx $#
bx ##
bx "#
bx !#
bx ~"
bx }"
bx |"
bx {"
bx z"
bx y"
bx x"
bx w"
bx v"
bx u"
bx t"
bx s"
bx r"
bx q"
bx p"
xo"
bx n"
bx m"
bx l"
bx k"
bx j"
bx i"
bx h"
bx g"
bx f"
bx e"
bx d"
bx c"
bx b"
bx a"
x`"
bx _"
bx ^"
bx ]"
bx \"
bx ["
bx Z"
bx Y"
bx X"
bx W"
bx V"
bx U"
bx T"
bx S"
bx R"
bx Q"
bx P"
xO"
xN"
bx M"
bx L"
xK"
bx J"
bx I"
bx H"
bx G"
bx F"
bx E"
bx D"
bx C"
bx B"
bx A"
bx @"
bx ?"
bx >"
bx ="
bx <"
bx ;"
bx :"
bx 9"
bx 8"
bx 7"
bx 6"
bx 5"
bx 4"
bx 3"
x2"
bx 1"
bx 0"
bx /"
bx ."
bx -"
bx ,"
bx +"
x*"
bx )"
bx ("
bx '"
bx &"
bx %"
bx $"
bx #"
bx ""
bx !"
bx ~
bx }
bx |
bx {
bx z
bx y
xx
xw
xv
xu
xt
bx s
bx r
bx q
bx p
bx o
bx n
bx m
bx l
bx k
bx j
bx i
bx h
bx g
bx f
bx e
bx d
bx c
bx b
bx a
bx `
bx _
bx ^
bx ]
bx \
bx [
bx Z
bx Y
bx X
bx W
bx V
bx U
bx T
bx S
bx R
bx Q
bx P
bx O
bx N
bx M
bx L
bx K
b1 J
bx I
xH
xG
bx F
bx E
xD
bx C
bx B
xA
bx @
bx ?
bx >
x=
bx <
bx ;
x:
x9
bx 8
bx 7
bx 6
x5
x4
bx 3
bx 2
bx 1
x0
bx /
x.
x-
bx ,
bx +
bx *
x)
x(
bx '
bx &
x%
bx $
bx #
1"
0!
$end
#1
b0 a
b0 g
b0 :#
b0 @#
1`"
b100000000000000000000000000000000000 {
b100000000000000000000000000000000000 7"
b100000000000000000000000000000000000 A"
b100000000000000000000000000000000000 |
b100000000000000000000000000000000000 8"
b100000000000000000000000000000000000 ="
b11000000000000 %"
0G
0(
b0 a"
b0 }
b100000000000000000000000000000000000 >"
b0 y
b0 4"
b100000000000000000000000000000000000 :"
b0 z
b0 3"
b0 #"
b0 $"
b0 &"
b0 ""
02"
b0 f
b0 e
0t
b0 ?#
b0 >#
0x
b0 L"
0K"
0v
1o"
0w
b0 l"
b0 |"
b0 J"
b0 Y"
b0 +#
b0 2#
b0 P
b0 Y
b0 k"
b0 "#
b0 I"
b0 ]"
b0 *#
b0 6#
b0 O
b0 ]
b0 m"
b0 x"
b11000000000000 /
b11000000000000 ~
b11000000000000 c"
b0 1
b0 !"
b0 b"
00
b0 ,"
b0 6"
b0 +"
b0 5"
0*"
b0 6
b0 K
b0 \
b0 /"
b0 H"
b0 Z"
b0 j"
b0 }"
b0 )#
b0 3#
b0 7
b0 L
b0 X
b0 ."
b0 G"
b0 V"
b0 i"
b0 y"
b0 (#
b0 /#
b0 8
b0 -"
b0 h"
b0 u"
b0 ;
b0 )"
b0 D"
0:
09
b0 >
b0 N
b0 '"
b0 E"
b0 f"
b0 &#
0u
b0 <
b0 M
b0 ("
b0 F"
b0 g"
b0 '#
0=
b0 E
b0 U
b0 `
b0 F
b0 T
b0 _
b0 I
b0 S
b0 ^
b0 d
0H
b0 B
b0 c
b0 i
b1 C
b1 b
b1 h
0D
b0 &
b0 .#
b0 9#
b0 '
b0 -#
b0 8#
b0 *
b0 ,#
b0 7#
b0 =#
0)
b0 #
b0 j
b0 <#
b10 $
b10 k
b10 ;#
0%
b0 M"
0N"
0O"
b0 R"
b0 Q"
b0 P"
05
b0 2
b0 n
b0 T"
b11 3
b11 o
b11 S"
04
b0 r"
b0 q"
b0 n"
b0 p"
0.
b0 +
b0 l
b0 t"
b111 ,
b111 m
b111 s"
0-
b0 ?
b0 Q
b0 V
b0 Z
b0 q
b0 s
b0 1"
b0 <"
b0 @"
b0 C"
b0 X"
b0 \"
b0 _"
b0 e"
b0 w"
b0 {"
b0 !#
b0 $#
b0 1#
b0 5#
b0 @
b0 R
b0 W
b0 [
b0 p
b0 r
b0 0"
b0 ;"
b0 ?"
b0 B"
b0 W"
b0 ["
b0 ^"
b0 d"
b0 v"
b0 z"
b0 ~"
b0 ##
b0 0#
b0 4#
0A
b100000 9"
b1000000000000 U"
1!
#2
0!
0"
#3
b1001 y
b1001 4"
b10010000000000000000 #"
b1111 ""
b1 a"
b111100000010010000000000000000 1
b111100000010010000000000000000 !"
b111100000010010000000000000000 b"
10
b11000000000100 %"
b11000000000100 /
b11000000000100 ~
b11000000000100 c"
b100000 9"
1!
#4
0!
#5
0`"
b0 y
b0 4"
b0 #"
b0 ""
12"
b0 1
b0 !"
b0 b"
00
b100000000000000000000000000000000000 ,"
b100000000000000000000000000000000000 6"
b1001 +"
b1001 5"
1*"
1=
b100000 9"
1!
#6
0!
#7
1`"
02"
b0 ,"
b0 6"
b0 +"
b0 5"
0*"
0=
b100000 9"
1!
#8
0!
#9
b10 a"
b1001 y
b1001 4"
b1001 z
b1001 3"
b1001010010000000000000001 #"
b1 $"
b1 &"
b1101 ""
b11000000001100 %"
b11000000001000 /
b11000000001000 ~
b11000000001000 c"
b110101001010010000000000000001 1
b110101001010010000000000000001 !"
b110101001010010000000000000001 b"
10
b100000 9"
1!
#10
0!
#11
0`"
b100000000000000000000000000000000001 O
b100000000000000000000000000000000001 ]
b100000000000000000000000000000000001 *#
b100000000000000000000000000000000001 6#
b100000000000000000000000000000000001 I"
b100000000000000000000000000000000001 ]"
b100000000000000000000000000000000001 k"
b100000000000000000000000000000000001 "#
b100000000000000000000000000000000000 P
b100000000000000000000000000000000000 Y
b100000000000000000000000000000000000 +#
b100000000000000000000000000000000000 2#
b100000000000000000000000000000000000 J"
b100000000000000000000000000000000000 Y"
b100000000000000000000000000000000000 l"
b100000000000000000000000000000000000 |"
12"
b0 y
b0 4"
b0 z
b0 3"
b0 #"
b11000000001000 %"
b0 $"
b0 &"
b0 ""
b1000000000000000000000000000000000 ,"
b1000000000000000000000000000000000 6"
b1001 +"
b1001 5"
1*"
b100000000000000000000000000000000001 6
b100000000000000000000000000000000001 K
b100000000000000000000000000000000001 \
b100000000000000000000000000000000001 /"
b100000000000000000000000000000000001 H"
b100000000000000000000000000000000001 Z"
b100000000000000000000000000000000001 j"
b100000000000000000000000000000000001 }"
b100000000000000000000000000000000001 )#
b100000000000000000000000000000000001 3#
b100000000000000000000000000000000000 7
b100000000000000000000000000000000000 L
b100000000000000000000000000000000000 X
b100000000000000000000000000000000000 ."
b100000000000000000000000000000000000 G"
b100000000000000000000000000000000000 V"
b100000000000000000000000000000000000 i"
b100000000000000000000000000000000000 y"
b100000000000000000000000000000000000 (#
b100000000000000000000000000000000000 /#
b10 <
b10 M
b10 ("
b10 F"
b10 g"
b10 '#
1=
b0 1
b0 !"
b0 b"
00
b100000 9"
1!
#12
0!
#13
b1 :#
b1 @#
1`"
1(
b0 k"
b0 "#
b0 I"
b0 ]"
b0 *#
b0 6#
b0 O
b0 ]
b0 l"
b0 |"
b0 J"
b0 Y"
b0 +#
b0 2#
b0 P
b0 Y
02"
b1 ?#
1x
b0 ,"
b0 6"
b0 +"
b0 5"
0*"
b0 6
b0 K
b0 \
b0 /"
b0 H"
b0 Z"
b0 j"
b0 }"
b0 )#
b0 3#
b0 7
b0 L
b0 X
b0 ."
b0 G"
b0 V"
b0 i"
b0 y"
b0 (#
b0 /#
b0 <
b0 M
b0 ("
b0 F"
b0 g"
b0 '#
0=
b100000000000000000000000000000000001 &
b100000000000000000000000000000000001 .#
b100000000000000000000000000000000001 9#
b100000000000000000000000000000000000 '
b100000000000000000000000000000000000 -#
b100000000000000000000000000000000000 8#
1)
b100000 9"
1!
#14
0!
#15
b0 :#
b0 @#
0(
b0 ?#
b1010 y
b1010 4"
b10100000000000000000 #"
b1111 ""
b11 a"
b1 #
b1 j
b1 <#
1%
b0 &
b0 .#
b0 9#
b0 '
b0 -#
b0 8#
0)
b111100000010100000000000000000 1
b111100000010100000000000000000 !"
b111100000010100000000000000000 b"
10
b11000000001100 %"
b11000000001100 /
b11000000001100 ~
b11000000001100 c"
b100000 9"
1!
#16
0!
#17
0`"
b0 y
b0 4"
b0 #"
b0 ""
12"
0x
b0 1
b0 !"
b0 b"
00
b100000000000000000000000000000000000 ,"
b100000000000000000000000000000000000 6"
b1010 +"
b1010 5"
1*"
1=
b0 #
b0 j
b0 <#
0%
b1 ?
b1 Q
b1 V
b1 Z
b1 q
b1 s
b1 1"
b1 <"
b1 @"
b1 C"
b1 X"
b1 \"
b1 _"
b1 e"
b1 w"
b1 {"
b1 !#
b1 $#
b1 1#
b1 5#
b10 @
b10 R
b10 W
b10 [
b10 p
b10 r
b10 0"
b10 ;"
b10 ?"
b10 B"
b10 W"
b10 ["
b10 ^"
b10 d"
b10 v"
b10 z"
b10 ~"
b10 ##
b10 0#
b10 4#
1A
b100000 9"
1!
#18
0!
#19
1`"
02"
b0 ?
b0 Q
b0 V
b0 Z
b0 q
b0 s
b0 1"
b0 <"
b0 @"
b0 C"
b0 X"
b0 \"
b0 _"
b0 e"
b0 w"
b0 {"
b0 !#
b0 $#
b0 1#
b0 5#
b0 @
b0 R
b0 W
b0 [
b0 p
b0 r
b0 0"
b0 ;"
b0 ?"
b0 B"
b0 W"
b0 ["
b0 ^"
b0 d"
b0 v"
b0 z"
b0 ~"
b0 ##
b0 0#
b0 4#
0A
b0 ,"
b0 6"
b0 +"
b0 5"
0*"
0=
b100000 9"
1!
#20
0!
#21
b100 a"
b1010 y
b1010 4"
b1010 z
b1010 3"
b1010010100000000000001011 #"
b1011 $"
b1011 &"
b1101 ""
b11000000111100 %"
b11000000010000 /
b11000000010000 ~
b11000000010000 c"
b110101010010100000000000001011 1
b110101010010100000000000001011 !"
b110101010010100000000000001011 b"
10
b100000 9"
1!
#22
0!
#23
0`"
b100000000000000000000000000000001011 O
b100000000000000000000000000000001011 ]
b100000000000000000000000000000001011 *#
b100000000000000000000000000000001011 6#
b100000000000000000000000000000001011 I"
b100000000000000000000000000000001011 ]"
b100000000000000000000000000000001011 k"
b100000000000000000000000000000001011 "#
b100000000000000000000000000000000000 P
b100000000000000000000000000000000000 Y
b100000000000000000000000000000000000 +#
b100000000000000000000000000000000000 2#
b100000000000000000000000000000000000 J"
b100000000000000000000000000000000000 Y"
b100000000000000000000000000000000000 l"
b100000000000000000000000000000000000 |"
12"
b0 y
b0 4"
b0 z
b0 3"
b0 #"
b11000000010000 %"
b0 $"
b0 &"
b0 ""
b1000000000000000000000000000000000 ,"
b1000000000000000000000000000000000 6"
b1010 +"
b1010 5"
1*"
b100000000000000000000000000000001011 6
b100000000000000000000000000000001011 K
b100000000000000000000000000000001011 \
b100000000000000000000000000000001011 /"
b100000000000000000000000000000001011 H"
b100000000000000000000000000000001011 Z"
b100000000000000000000000000000001011 j"
b100000000000000000000000000000001011 }"
b100000000000000000000000000000001011 )#
b100000000000000000000000000000001011 3#
b100000000000000000000000000000000000 7
b100000000000000000000000000000000000 L
b100000000000000000000000000000000000 X
b100000000000000000000000000000000000 ."
b100000000000000000000000000000000000 G"
b100000000000000000000000000000000000 V"
b100000000000000000000000000000000000 i"
b100000000000000000000000000000000000 y"
b100000000000000000000000000000000000 (#
b100000000000000000000000000000000000 /#
b10 <
b10 M
b10 ("
b10 F"
b10 g"
b10 '#
1=
b0 1
b0 !"
b0 b"
00
b100000 9"
1!
#24
0!
#25
b1011 :#
b1011 @#
1`"
1(
b0 k"
b0 "#
b0 I"
b0 ]"
b0 *#
b0 6#
b0 O
b0 ]
b0 l"
b0 |"
b0 J"
b0 Y"
b0 +#
b0 2#
b0 P
b0 Y
02"
b1011 ?#
1x
b0 ,"
b0 6"
b0 +"
b0 5"
0*"
b0 6
b0 K
b0 \
b0 /"
b0 H"
b0 Z"
b0 j"
b0 }"
b0 )#
b0 3#
b0 7
b0 L
b0 X
b0 ."
b0 G"
b0 V"
b0 i"
b0 y"
b0 (#
b0 /#
b0 <
b0 M
b0 ("
b0 F"
b0 g"
b0 '#
0=
b100000000000000000000000000000001011 &
b100000000000000000000000000000001011 .#
b100000000000000000000000000000001011 9#
b100000000000000000000000000000000000 '
b100000000000000000000000000000000000 -#
b100000000000000000000000000000000000 8#
1)
b100000 9"
1!
#26
0!
#27
b0 :#
b0 @#
0(
b0 ?#
b1011 y
b1011 4"
b10110000000000000000 #"
b1111 ""
b101 a"
b1011 #
b1011 j
b1011 <#
1%
b0 &
b0 .#
b0 9#
b0 '
b0 -#
b0 8#
0)
b111100000010110000000000000000 1
b111100000010110000000000000000 !"
b111100000010110000000000000000 b"
10
b11000000010100 %"
b11000000010100 /
b11000000010100 ~
b11000000010100 c"
b100000 9"
1!
#28
0!
#29
0`"
b0 y
b0 4"
b0 #"
b0 ""
12"
0x
b0 1
b0 !"
b0 b"
00
b100000000000000000000000000000000000 ,"
b100000000000000000000000000000000000 6"
b1011 +"
b1011 5"
1*"
1=
b0 #
b0 j
b0 <#
0%
b1011 ?
b1011 Q
b1011 V
b1011 Z
b1011 q
b1011 s
b1011 1"
b1011 <"
b1011 @"
b1011 C"
b1011 X"
b1011 \"
b1011 _"
b1011 e"
b1011 w"
b1011 {"
b1011 !#
b1011 $#
b1011 1#
b1011 5#
b10 @
b10 R
b10 W
b10 [
b10 p
b10 r
b10 0"
b10 ;"
b10 ?"
b10 B"
b10 W"
b10 ["
b10 ^"
b10 d"
b10 v"
b10 z"
b10 ~"
b10 ##
b10 0#
b10 4#
1A
b100000 9"
1!
#30
0!
#31
1`"
02"
b0 ?
b0 Q
b0 V
b0 Z
b0 q
b0 s
b0 1"
b0 <"
b0 @"
b0 C"
b0 X"
b0 \"
b0 _"
b0 e"
b0 w"
b0 {"
b0 !#
b0 $#
b0 1#
b0 5#
b0 @
b0 R
b0 W
b0 [
b0 p
b0 r
b0 0"
b0 ;"
b0 ?"
b0 B"
b0 W"
b0 ["
b0 ^"
b0 d"
b0 v"
b0 z"
b0 ~"
b0 ##
b0 0#
b0 4#
0A
b0 ,"
b0 6"
b0 +"
b0 5"
0*"
0=
b100000 9"
1!
#32
0!
#33
b110 a"
b1011 y
b1011 4"
b1011 z
b1011 3"
b1011010110000000000000000 #"
b1101 ""
b11000000011000 %"
b11000000011000 /
b11000000011000 ~
b11000000011000 c"
b110101011010110000000000000000 1
b110101011010110000000000000000 !"
b110101011010110000000000000000 b"
10
b100000 9"
1!
#34
0!
